^C:\USERS\19132\SOURCE\REPOS\CS303\CS303\INSERT IN STACK.CPP
/c /ZI /JMC /nologo /W3 /WX- /diagnostics:column /sdl /Od /D _DEBUG /D _CONSOLE /D _UNICODE /D UNICODE /Gm- /EHsc /RTC1 /MDd /GS /fp:precise /Zc:wchar_t /Zc:forScope /Zc:inline /openmp /permissive- /Fo"X64\DEBUG\\" /Fd"X64\DEBUG\VC143.PDB" /external:W3 /Gd /TP /FC C:\USERS\19132\SOURCE\REPOS\CS303\CS303\INSERT IN STACK.CPP
^C:\USERS\19132\SOURCE\REPOS\CS303\CS303\COMPUTING DOT PRODUCT OF 2 VECTORS.CPP
/c /ZI /JMC /nologo /W3 /WX- /diagnostics:column /sdl /Od /D _DEBUG /D _CONSOLE /D _UNICODE /D UNICODE /Gm- /EHsc /RTC1 /MDd /GS /fp:precise /Zc:wchar_t /Zc:forScope /Zc:inline /openmp /permissive- /Fo"X64\DEBUG\\" /Fd"X64\DEBUG\VC143.PDB" /external:W3 /Gd /TP /FC C:\USERS\19132\SOURCE\REPOS\CS303\CS303\COMPUTING DOT PRODUCT OF 2 VECTORS.CPP
^C:\USERS\19132\SOURCE\REPOS\CS303\CS303\SELECT SORT LINKED LIST.CPP
/c /ZI /JMC /nologo /W3 /WX- /diagnostics:column /sdl /Od /D _DEBUG /D _CONSOLE /D _UNICODE /D UNICODE /Gm- /EHsc /RTC1 /MDd /GS /fp:precise /Zc:wchar_t /Zc:forScope /Zc:inline /openmp /permissive- /Fo"X64\DEBUG\\" /Fd"X64\DEBUG\VC143.PDB" /external:W3 /Gd /TP /FC C:\USERS\19132\SOURCE\REPOS\CS303\CS303\SELECT SORT LINKED LIST.CPP
^C:\USERS\19132\SOURCE\REPOS\CS303\CS303\RECURSION STACK TRACE.CPP
/c /ZI /JMC /nologo /W3 /WX- /diagnostics:column /sdl /Od /D _DEBUG /D _CONSOLE /D _UNICODE /D UNICODE /Gm- /EHsc /RTC1 /MDd /GS /fp:precise /Zc:wchar_t /Zc:forScope /Zc:inline /openmp /permissive- /Fo"X64\DEBUG\\" /Fd"X64\DEBUG\VC143.PDB" /external:W3 /Gd /TP /FC C:\USERS\19132\SOURCE\REPOS\CS303\CS303\RECURSION STACK TRACE.CPP
^C:\USERS\19132\SOURCE\REPOS\CS303\CS303\SORT COUNTER.CPP
/c /ZI /JMC /nologo /W3 /WX- /diagnostics:column /sdl /Od /D _DEBUG /D _CONSOLE /D _UNICODE /D UNICODE /Gm- /EHsc /RTC1 /MDd /GS /fp:precise /Zc:wchar_t /Zc:forScope /Zc:inline /openmp /permissive- /Fo"X64\DEBUG\\" /Fd"X64\DEBUG\VC143.PDB" /external:W3 /Gd /TP /FC C:\USERS\19132\SOURCE\REPOS\CS303\CS303\SORT COUNTER.CPP
